{
  "type": "service_account",
  "project_id": "instazz",
  "private_key_id": "71f69344918f733c45fc7b9d9d1adf95b7d76016",
  "private_key": "-----BEGIN PRIVATE KEY-----\nMIIEvQIBADANBgkqhkiG9w0BAQEFAASCBKcwggSjAgEAAoIBAQCdJIrIH5goSZVP\n47q5lBHVJaAnRAVW18W743l1MzIa1VAcE/XmSy0cP3wz67r7hnK9pSUv1v7KBUQZ\nFWdW5xXp7oNRvcTvFSvos+BVZLpgEjLEnzd/Zl1T9M3UbjtajKmzYyU168l8rsgl\ngYr0E0/ODCoZcHUQ6F1zDHXKs4DRwqx9FIuspyn9U6yi4cbFAXCOYHfbZ6P1uBr3\nNdhpO/8hok16cvymGAqwpc/CUUg3m9PbzDCwDm23Eaom11rnbV2x8lyxMfNBdWfi\n7qJZsPTJNV1b/g8XT+RbSrHdzD35ZmRszmOGfP5PvSwhqLLWv8nHwT3jvp4UAYan\nZWdTv9FVAgMBAAECggEAD2J7vN6M/sq/dcgZqKAUw92waY+5BxjOaNf7NOx7eBGQ\ny4LvxOlww+56OjoWvxfZZXRE6QNfRAeSdHM6QBGVPWcmz6qo3HBh8WEk8i9PqOa3\nNjVRUWWD9xuFSEo3gOS7G482HiqUuiKBgVyGrmEyo71gpMd0CqD5PzGF2b/LuZ1y\nY1a3kuQ4YlhXhqPsnUE036DmAbHaJKkNzokAvFvp5TO/cugkBLttaiUJF0YORxrN\nf0YtAU1oPzGMEFcQaR3WxLZlt36rkx4glWfSHFrd92Ocf90TX+wUrUaeCCPrr4Wy\nT7tSOI8S3CpYXbCWG8XwO3QTw962mLO4CgbpY8FgAQKBgQDccLGZYD57QdSXBy63\nMaQuv5gsneCCcmG6SLeDtZas/hlZsthFeWw70aePaI5OVwPZdiYyE51/Tdzok9Hi\n03fuG4H3uMfdvpNH14VdFoLl41BLBAoGBRypkjV484Vkc8WsQvP41aQWND+0unS/\neUfEFABF5tDh8t5sxG4cFbVxVQKBgQC2fen/QFFe5wltpTefwyuJxYj1lYeyKk46\ny1PwCvfUyE+U9tnO7eSHOFkpPzaSDfSMivyX8VGy2SFQsgcLhr9O1CpqOKpwFvqs\nvvqmmScLDCysn3LftMoAuocwzjCiEKjV3vVCr+r5WqGu5pyA1N+wV91eK7DXQQN4\nxpwmD2DgAQKBgQCKunFKcQNhVoCPu3lu2NLWiMUf7wuHjKxsK68yOGlm3VLe3Gq2\n7j9rNfoZildkfeZySKSpBycrIrlPtRd1hFgJhU45tBQ0POc7YysO9kfSnUe+rgAQ\n4c6z+MumHrtoCGPykQAxLWJihudAuccXaR/9CglR9Hyodcv873HMQu05MQKBgAvF\nNUl8WYM4fZgv1tWcHfvF3N6SJW1tYxxRrvlFi9SSkud1wHijSWEbVkzdweRLuCE0\nebRHIVDaxlZRFTk+GKq57n5pZzzRjpuDueDy8dy5jUwZAKzDGWBQp5WTRvm8/1bE\nCaeidxJcMR95ylBY6pCSKjn/sWlAzTuF+95MkaABAoGAUNYjLmXlxcb4Pm7W9c+i\ncbbdu1SA9PzpdDkgmLSYTkVqNcwEtOijsNCBpxcZY7VQBnTEN4VFEFVF4XvCe8N4\nH+un2aMfjiUyERuYuqx7adUEJqaIxEVv0zWsCyhjVYmhRfT1AQ/7DTF0N0GkiYx4\n28+/TjLapCJb2aP0d9u9tKQ=\n-----END PRIVATE KEY-----\n",
  "client_email": "instazz@instazz.iam.gserviceaccount.com",
  "client_id": "111651264944137239480",
  "auth_uri": "https://accounts.google.com/o/oauth2/auth",
  "token_uri": "https://oauth2.googleapis.com/token",
  "auth_provider_x509_cert_url": "https://www.googleapis.com/oauth2/v1/certs",
  "client_x509_cert_url": "https://www.googleapis.com/robot/v1/metadata/x509/instazz%40instazz.iam.gserviceaccount.com"
}
